{
    "Electronics": [
                    {
                    "name": "Microwave oven",
                    "price": 12000,
                    "quantities": "1",
                    "image": [
                              "MicrowaveOven0",
                              "MicrowaveOven2"
                              ]
                    },
                    {
                    "name": "Television",
                    "price": 11000,
                    "quantities": "1",
                    "image": [
                              "Television0",
                              "Television1"
                              ]
                    },
                    {
                    "name": "Vacuum Cleaner",
                    "price": 7000,
                    "quantities": "1",
                    "image": [
                              "VacuumCleaner0",
                              "VacuumCleaner1",
                              "VacuumCleaner2"
                              ]
                    }
                    ],
    "Furniture": [
                  {
                  "name": "Table",
                  "price": 5500,
                  "quantities": "1",
                  "image": [
                            "Table0",
                            "Table1",
                            "Table2"
                            ]
                  },
                  {
                  "name": "Chair",
                  "price": 1000,
                  "quantities": "1",
                  "image": [
                            "Chair0",
                            "Chair1",
                            "Chair2"
                            ]
                  },
                  {
                  "name": "Almirah",
                  "price": 1000,
                  "quantities": "1",
                  "image": [
                            "Almirah0",
                            "Almirah1",
                            "Almirah2"
                            ]
                  }
                  
                  ]
}